
[
  {
    "gunNo":0,
    "model":"AK-47",
    "handy":true,
    "origin":"Russia",
    "material":"steel-wood",
    "ttc":{
      "distance":"LONG",
      "sightability":21,
      "hasclip":true,
      "hasoptics":false
    }
  },
  {
    "gunNo":1,
    "model":"M16",
    "handy":true,
    "origin":"USA",
    "material":"steel",
    "ttc":{
      "distance":"LONG",
      "sightability":25,
      "hasclip":true,
      "hasoptics":true
    }
  },
  {
    "gunNo":2,
    "model":"Makarov",
    "handy":false,
    "origin":"Russia",
    "material":"steel-plastic",
    "ttc":{
      "distance":"SHORT",
      "sightability":5,
      "hasclip":true,
      "hasoptics":false
    }
  }
  ]